Spotify Tracks dataset
…
Including Plots

You can also embed plots, for example:

na.omit(spotifydf)

## # A tibble: 232,725 x 18
##    genre artist_name  track_name   track_id popularity acousticness danceability
##    <chr> <chr>        <chr>        <chr>         <dbl>        <dbl>        <dbl>
##  1 Movie Henri Salva~ C'est beau ~ 0BRjO6g~          0      0.611          0.389
##  2 Movie Martin & le~ Perdu d'ava~ 0BjC1Nf~          1      0.246          0.59 
##  3 Movie Joseph Will~ Don't Let M~ 0CoSDzo~          3      0.952          0.663
##  4 Movie Henri Salva~ Dis-moi Mon~ 0Gc6TVm~          0      0.703          0.24 
##  5 Movie Fabien Nataf Ouverture    0IuslXp~          4      0.95           0.331
##  6 Movie Henri Salva~ Le petit so~ 0Mf1jKa~          0      0.749          0.578
##  7 Movie Martin & le~ Premires r~ 0NUiKYR~          2      0.344          0.703
##  8 Movie Laura Mayne  Let Me Let ~ 0PbIF9Y~         15      0.939          0.416
##  9 Movie Chorus       Helka        0ST6uPf~          0      0.00104        0.734
## 10 Movie Le Club des~ Les bisous ~ 0VSqZ3K~         10      0.319          0.598
## # ... with 232,715 more rows, and 11 more variables: duration_ms <dbl>,
## #   energy <dbl>, instrumentalness <dbl>, key <chr>, liveness <dbl>,
## #   loudness <dbl>, mode <chr>, speechiness <dbl>, tempo <dbl>,
## #   time_signature <chr>, valence <dbl>
genres <- distinct(spotifydf, genre)$genre
genres

##  [1] "Movie"            "R&B"              "A Capella"        "Alternative"     
##  [5] "Country"          "Dance"            "Electronic"       "Anime"           
##  [9] "Folk"             "Blues"            "Opera"            "Hip-Hop"         
## [13] "Children's Music" "Childrens Music" "Rap"              "Indie"           
## [17] "Classical"        "Pop"              "Reggae"           "Reggaeton"       
## [21] "Jazz"             "Rock"             "Ska"              "Comedy"          
## [25] "Soul"             "Soundtrack"       "World"

spotifydf$genre[spotifydf$genre=="Children's Music"] <- "Childrens Music"
spotifydf[!duplicated(spotifydf$track_id),]

## # A tibble: 176,774 x 18
##    genre artist_name  track_name   track_id popularity acousticness danceability
##    <chr> <chr>        <chr>        <chr>         <dbl>        <dbl>        <dbl>
##  1 Movie Henri Salva~ C'est beau ~ 0BRjO6g~          0      0.611          0.389
##  2 Movie Martin & le~ Perdu d'ava~ 0BjC1Nf~          1      0.246          0.59 
##  3 Movie Joseph Will~ Don't Let M~ 0CoSDzo~          3      0.952          0.663
##  4 Movie Henri Salva~ Dis-moi Mon~ 0Gc6TVm~          0      0.703          0.24 
##  5 Movie Fabien Nataf Ouverture    0IuslXp~          4      0.95           0.331
##  6 Movie Henri Salva~ Le petit so~ 0Mf1jKa~          0      0.749          0.578
##  7 Movie Martin & le~ Premires r~ 0NUiKYR~          2      0.344          0.703
##  8 Movie Laura Mayne  Let Me Let ~ 0PbIF9Y~         15      0.939          0.416
##  9 Movie Chorus       Helka        0ST6uPf~          0      0.00104        0.734
## 10 Movie Le Club des~ Les bisous ~ 0VSqZ3K~         10      0.319          0.598
## # ... with 176,764 more rows, and 11 more variables: duration_ms <dbl>,
## #   energy <dbl>, instrumentalness <dbl>, key <chr>, liveness <dbl>,
## #   loudness <dbl>, mode <chr>, speechiness <dbl>, tempo <dbl>,
## #   time_signature <chr>, valence <dbl>
…
