…
## Including Plots

Some genres are duplicated. (encoding mismatches).

``` r
na.omit(tracks)
```

    ## # A tibble: 232,725 x 19
    ##    genre artist_name  track_name   track_id popularity acousticness danceability
    ##    <fct> <chr>        <chr>        <chr>         <dbl>        <dbl>        <dbl>
    ##  1 Movie Henri Salva~ C'est beau ~ 0BRjO6g~          0      0.611          0.389
    ##  2 Movie Martin & le~ Perdu d'ava~ 0BjC1Nf~          1      0.246          0.59 
    ##  3 Movie Joseph Will~ Don't Let M~ 0CoSDzo~          3      0.952          0.663
    ##  4 Movie Henri Salva~ Dis-moi Mon~ 0Gc6TVm~          0      0.703          0.24 
    ##  5 Movie Fabien Nataf Ouverture    0IuslXp~          4      0.95           0.331
    ##  6 Movie Henri Salva~ Le petit so~ 0Mf1jKa~          0      0.749          0.578
    ##  7 Movie Martin & le~ Premières r~ 0NUiKYR~          2      0.344          0.703
    ##  8 Movie Laura Mayne  Let Me Let ~ 0PbIF9Y~         15      0.939          0.416
    ##  9 Movie Chorus       Helka        0ST6uPf~          0      0.00104        0.734
    ## 10 Movie Le Club des~ Les bisous ~ 0VSqZ3K~         10      0.319          0.598
    ## # ... with 232,715 more rows, and 12 more variables: duration_ms <dbl>,
    ## #   energy <dbl>, instrumentalness <dbl>, key <fct>, liveness <dbl>,
    ## #   loudness <dbl>, mode <fct>, speechiness <dbl>, tempo <dbl>,
    ## #   time_signature <chr>, valence <dbl>, isKey1 <int>
…
    ##  [1] Movie           RB              A Capella       Alternative    
    ##  [5] Country         Dance           Electronic      Anime          
    ##  [9] Folk            Blues           Opera           HipHop         
    ## [13] Childrens Music Rap             Indie           Classical      
    ## [17] Pop             Reggae          Reggaeton       Jazz           
    ## [21] Rock            Ska             Comedy          Soul           
    ## [25] Soundtrack      World          
    ## 26 Levels: A Capella Alternative Anime Blues Childrens Music ... World

``` r
tracks[!duplicated(tracks$track_id),]
```

    ## # A tibble: 176,774 x 19
    ##    genre artist_name  track_name   track_id popularity acousticness danceability
    ##    <fct> <chr>        <chr>        <chr>         <dbl>        <dbl>        <dbl>
    ##  1 Movie Henri Salva~ C'est beau ~ 0BRjO6g~          0      0.611          0.389
    ##  2 Movie Martin & le~ Perdu d'ava~ 0BjC1Nf~          1      0.246          0.59 
    ##  3 Movie Joseph Will~ Don't Let M~ 0CoSDzo~          3      0.952          0.663
    ##  4 Movie Henri Salva~ Dis-moi Mon~ 0Gc6TVm~          0      0.703          0.24 
    ##  5 Movie Fabien Nataf Ouverture    0IuslXp~          4      0.95           0.331
    ##  6 Movie Henri Salva~ Le petit so~ 0Mf1jKa~          0      0.749          0.578
    ##  7 Movie Martin & le~ Premières r~ 0NUiKYR~          2      0.344          0.703
    ##  8 Movie Laura Mayne  Let Me Let ~ 0PbIF9Y~         15      0.939          0.416
    ##  9 Movie Chorus       Helka        0ST6uPf~          0      0.00104        0.734
    ## 10 Movie Le Club des~ Les bisous ~ 0VSqZ3K~         10      0.319          0.598
    ## # ... with 176,764 more rows, and 12 more variables: duration_ms <dbl>,
    ## #   energy <dbl>, instrumentalness <dbl>, key <fct>, liveness <dbl>,
    ## #   loudness <dbl>, mode <fct>, speechiness <dbl>, tempo <dbl>,
    ## #   time_signature <chr>, valence <dbl>, isKey1 <int>
…
For each feature, plot grouping w.r.t Popularity.

``` r
genres_df <- tracks %>%
   select(popularity, genre)%>%
    count(popularity, genre)
by_genres <- tracks %>% group_by(genre, popularity)
by_genres %>% summarise(
  popularity = mean(popularity),
)
```

    ## `summarise()` has grouped output by 'genre'. You can override using the `.groups` argument.

    ## # A tibble: 1,802 x 2
    ## # Groups:   genre [26]
    ##    genre     popularity
    ##    <fct>          <dbl>
    ##  1 A Capella          0
    ##  2 A Capella          1
    ##  3 A Capella          2
    ##  4 A Capella          3
    ##  5 A Capella          4
    ##  6 A Capella          5
    ##  7 A Capella          6
    ##  8 A Capella          7
    ##  9 A Capella          8
    ## 10 A Capella          9
    ## # ... with 1,792 more rows

``` r
by_genre <- by_genres %>% summarise(n = n())
```

    ## `summarise()` has grouped output by 'genre'. You can override using the `.groups` argument.

``` r
by_genre %>% summarise(n = sum(n)) %>% filter(n>0)
```

    ## # A tibble: 26 x 2
    ##    genre               n
    ##    <fct>           <int>
    ##  1 A Capella         119
    ##  2 Alternative      9263
    ##  3 Anime            8936
    ##  4 Blues            9023
    ##  5 Childrens Music 14756
    ##  6 Classical        9256
    ##  7 Comedy           9681
    ##  8 Country          8664
    ##  9 Dance            8701
    ## 10 Electronic       9377
    ## # ... with 16 more rows
…
